…
min_pair_raw
#> # A tibble: 6,368 x 30
#>    Study      ResearchID Female   AAE LateTalker CImplant MinPair_Age
#>    <chr>      <chr>       <int> <int>      <int>    <int>       <int>
#>  1 TimePoint1 600L            0     0          0        0          37
#>  2 TimePoint1 600L            0     0          0        0          37
#>  3 TimePoint1 600L            0     0          0        0          37
#>  4 TimePoint1 600L            0     0          0        0          37
#>  5 TimePoint1 600L            0     0          0        0          37
#>  6 TimePoint1 600L            0     0          0        0          37
#>  7 TimePoint1 600L            0     0          0        0          37
#>  8 TimePoint1 600L            0     0          0        0          37
#>  9 TimePoint1 600L            0     0          0        0          37
#> 10 TimePoint1 600L            0     0          0        0          37
#> # ... with 6,358 more rows, and 23 more variables: MinPair_Dialect <chr>,
#> #   MinPair_EprimeFile <chr>, Running <chr>, Trial <int>, Item1 <chr>,
#> #   Item2 <chr>, ImageSide <chr>, CorrectResponse <chr>, Correct <int>,
#> #   PPVT_Age <int>, PPVT_Raw <int>, PPVT_Standard <int>, PPVT_GSV <int>,
#> #   EVT_Age <int>, EVT_Raw <int>, EVT_Standard <int>, EVT_GSV <int>,
#> #   GFTA_Age <int>, GFTA_RawCorrect <int>, GFTA_NumTranscribed <int>,
#> #   GFTA_AdjCorrect <int>, GFTA_AdjNumErrors <int>, GFTA_Standard <int>
```
…
